.build
.start
.grps
.root
.parm
project1.n
project1.parm
project1.panel
project1/geo1.n
project1/geo1.parm
project1/geo1.network
project1/geo1.gnode
project1/geo1/in1.n
project1/geo1/box1.n
project1/geo1/box1.parm
project1/geo1/out1.n
project1/geo1/phong1.n
project1/geo1/phong1.parm
project1/geo1/texture1.n
project1/geo1/texture1.parm
project1/out1.n
project1/null1.n
project1/text1.n
project1/text1.text
project1/text2.n
project1/text2.text
project1/text3.n
project1/text3.text
project1/text4.n
project1/text4.text
project1/text5.n
project1/text5.text
project1/lister.n
project1/lister.cparm
project1/lister.parm
project1/lister.network
project1/lister.panel
project1/lister/out_table.n
project1/lister/inputTable.n
project1/lister/out_selected.n
project1/lister/out_selected.parm
project1/lister/configDefault.n
project1/lister/configDefault.parm
project1/lister/configWatcher.n
project1/noise1.n
project1/noise1.parm
project1/udpin1.n
project1/udpin1.parm
project1/udpin1.fifo
project1/udpin2.n
project1/udpin2.parm
project1/udpin2.fifo
project1/chopto1.n
project1/chopto1.parm
project1/folder1.n
project1/folder1.parm
project1/execute1.n
project1/execute1.parm
project1/execute1.text
project1/displace1.n
project1/displace1.parm
project1/listerConfig.n
project1/listerConfig.parm
project1/listerConfig/button.n
project1/listerConfig/button.parm
project1/listerConfig/define.n
project1/listerConfig/define.parm
project1/listerConfig/define.table
project1/listerConfig/header.n
project1/listerConfig/header.parm
project1/listerConfig/master.n
project1/listerConfig/master.parm
project1/listerConfig/rowRoll.n
project1/listerConfig/rowRoll.parm
project1/listerConfig/btnImage.n
project1/listerConfig/btnImage.parm
project1/listerConfig/rowError.n
project1/listerConfig/rowError.parm
project1/listerConfig/callbacks.n
project1/listerConfig/callbacks.text
project1/listerConfig/colDefine.n
project1/listerConfig/colDefine.parm
project1/listerConfig/colDefine.table
project1/listerConfig/rowSelect.n
project1/listerConfig/rowSelect.parm
project1/listerConfig/buttonRoll.n
project1/listerConfig/buttonRoll.parm
project1/listerConfig/headerRoll.n
project1/listerConfig/headerRoll.parm
project1/listerConfig/buttonPress.n
project1/listerConfig/buttonPress.parm
project1/listerConfig/headerPress.n
project1/listerConfig/headerPress.parm
project1/listerConfig/btnImageRoll.n
project1/listerConfig/btnImageRoll.parm
project1/listerConfig/headerSelect.n
project1/listerConfig/headerSelect.parm
project1/listerConfig/btnImagePress.n
project1/listerConfig/btnImagePress.parm
project1/listerConfig/rowStripeOverlay.n
project1/listerConfig/rowStripeOverlay.parm
project1/moviefilein1.n
project1/moviefilein1.parm
project1/udpin1_callbacks.n
project1/udpin1_callbacks.text
project1/udpin2_callbacks.n
project1/udpin2_callbacks.text
project1/folder1_callbacks.n
project1/folder1_callbacks.text
perform.n
perform.parm
local.n
local.parm
local/maps.n
local/maps.parm
local/maps/master.n
local/maps/select1.n
local/maps/select1.parm
local/maps/select2.n
local/maps/select2.parm
local/maps/replicator1.n
local/maps/replicator1.parm
local/maps/replicator1.replicator
local/maps/replicator1_callbacks.n
local/maps/replicator1_callbacks.text
local/midi.n
local/midi.parm
local/midi.lod
local/time.n
local/time.parm
local/shortcuts.n
local/shortcuts.parm
local/variables.n
local/master_beat.n
local/master_beat.parm
local/master_beat.chop
local/master_beat.beat
local/set_variables.n
local/set_variables.table
.application
